{"success":true,"data":[{"id":26,"title":"Deloitte Audit Associate","company":"Deloitte","category":"Finance","type":"full-time","location":"Mumbai, Bangalore, Delhi, Chennai, Hyderabad","eligibility_criteria":"CA Inter/Degree in Commerce. 0-3 years experience.","fees_structure":"No fees","salary":"₹4,00,000 - ₹8,00,000","last_date":"2026-03-31T22:03:09.190Z","apply_link":"https://www2.deloitte.com/global/en/careers","source":"DELOITTE","is_featured":false,"is_active":true,"created_at":"2026-03-01T22:03:09.580Z","updated_at":"2026-03-01T22:03:09.580Z","is_expired":false},{"id":25,"title":"Flipkart Business Development Manager","company":"Flipkart","category":"E-commerce","type":"full-time","location":"Bangalore, Delhi, Mumbai","eligibility_criteria":"MBA preferred. 2-5 years in e-commerce/retail/BD. Excellent analytical skills.","fees_structure":"No fees","salary":"₹5,00,000 - ₹12,00,000","last_date":"2026-03-26T22:03:09.190Z","apply_link":"https://www.flipkart.com/careers","source":"FLIPKART","is_featured":false,"is_active":true,"created_at":"2026-03-01T22:03:09.573Z","updated_at":"2026-03-01T22:03:09.573Z","is_expired":false}],"pagination":{"page":1,"limit":2,"totalCount":23,"totalPages":12,"hasNextPage":true,"hasPrevPage":false}}